{
  "js": [
    "gesture_detector.js",
    "font_size_utils.js",
    "mime_mapper.js",
    "notification_helper.js"
  ],
  "style": [
    "input_areas.css",
    "headers.css",
    "switches.css",
    "buttons.css",
    "status.css",
    "confirm.css",
    "action_menu.css",
    "progress_activity.css",
    "tabs.css",
    "value_selector.css"
  ],
  "style_unstable": []
}